<?xml version="1.0" encoding="UTF-8" standalone="no"?>
<svg
   width="240.06473"
   height="240.66389"
   version="1.1"
   id="svg208"
   sodipodi:docname="favicon5.svg"
   inkscape:version="1.2.1 (9c6d41e410, 2022-07-14)"
   inkscape:export-filename="favicon.png"
   inkscape:export-xdpi="6.3954988"
   inkscape:export-ydpi="6.3954988"
   xmlns:inkscape="http://www.inkscape.org/namespaces/inkscape"
   xmlns:sodipodi="http://sodipodi.sourceforge.net/DTD/sodipodi-0.dtd"
   xmlns="http://www.w3.org/2000/svg"
   xmlns:svg="http://www.w3.org/2000/svg">
  <defs
     id="defs212">
    <rect
       x="188.48312"
       y="110.70624"
       width="424.84189"
       height="391.94623"
       id="rect372" />
  </defs>
  <sodipodi:namedview
     id="namedview210"
     pagecolor="#ffffff"
     bordercolor="#666666"
     borderopacity="1.0"
     inkscape:showpageshadow="2"
     inkscape:pageopacity="0.0"
     inkscape:pagecheckerboard="0"
     inkscape:deskcolor="#d1d1d1"
     showgrid="false"
     inkscape:zoom="1.519186"
     inkscape:cx="78.331422"
     inkscape:cy="128.68734"
     inkscape:window-width="1366"
     inkscape:window-height="768"
     inkscape:window-x="0"
     inkscape:window-y="0"
     inkscape:window-maximized="1"
     inkscape:current-layer="svg208" />
  <path
     fill="#c1272d"
     d="M 0,0 H 240.16892 V 240.70404 H 0 Z"
     id="path202"
     style="stroke-width:0.310402" />
  <rect
     style="fill:#006a44;fill-opacity:1;stroke:none;stroke-width:0;stroke-linecap:round;stroke-linejoin:bevel"
     id="rect898"
     width="196.17667"
     height="196.17667"
     x="22.980391"
     y="23.140381" />
  <text
     xml:space="preserve"
     id="text370"
     style="font-style:normal;font-variant:normal;font-weight:bold;font-stretch:normal;font-size:192px;line-height:125%;font-family:'Noto Sans CJK HK';-inkscape-font-specification:'Noto Sans CJK HK, Normal';font-variant-ligatures:normal;font-variant-caps:normal;font-variant-numeric:normal;font-variant-east-asian:normal;text-align:start;letter-spacing:0px;word-spacing:0px;writing-mode:lr-tb;white-space:pre;shape-inside:url(#rect372);display:inline;fill:#fdb913;fill-opacity:1;stroke:none;stroke-width:1px;stroke-linecap:butt;stroke-linejoin:miter;stroke-opacity:1"
     transform="matrix(1.0010476,0,0,1.0010476,-162.75233,-109.28245)"><tspan
       x="188.48242"
       y="303.66703"
       id="tspan1633">法</tspan></text>
</svg>
